[
  {
    "path": "posts/2021-02-03-recodage/",
    "title": "Recodage",
    "description": "L'objectif ici est de creer des variables en transformant les variables existantes",
    "author": [],
    "date": "2021-02-05",
    "categories": [],
    "contents": "\r\nVariable quantitative en variable qualitative\r\n\r\n\r\n\r\n\r\n\r\ntitanic$AGE<-as.factor(titanic$AGE)\r\n\r\n\r\n\r\n\r\n\r\ntitanic$AGE_c1<-as.factor(titanic$AGE)\r\n\r\nlevels(titanic$AGE_c1)<-c(\"enfant\",\"adulte\")\r\n\r\n\r\n\r\nAvec le tidyverse\r\n\r\n\r\nlibrary(forcats)\r\ntitanic$AGE_c2<-as.factor(titanic$AGE)\r\n\r\ntitanic$AGE_c2<- fct_recode(titanic$AGE,\r\n           \"Enfant\" = \"0\",\r\n           \"Adulte\" = \"1\")\r\n\r\n\r\n\r\nVerification\r\n\r\n\r\ntable(titanic$AGE_c2,titanic$AGE_c1)\r\n\r\n\r\n        \r\n         enfant adulte\r\n  Enfant    109      0\r\n  Adulte      0   2092\r\n\r\n\r\n\r\nlibrary(forcats)\r\ntitanic$AGE_c2<-as.factor(titanic$AGE)\r\n\r\ntitanic$AGE_c2<- fct_recode(titanic$AGE,\r\n           \"Enfant\" = \"0\",\r\n           \"Adulte\" = \"1\")\r\n\r\n\r\n\r\nRegroupement de modalités\r\nOn souhaite transformer la variable de classe de passager pour avoir une nouvelle variable ne comportant que 3 modalités : equipage, passer de 1-2 classes, passager de classe 3.\r\nA l’ancienne\r\nLa colonne CLASS correspond à la classe de cabine, selon les codes :\r\n0 = équipage,\r\n1 = première classe,\r\n2 = seconde classe,\r\n3 = troisième classe.\r\n\r\n\r\ntitanic$CLASS_c1<-as.factor(titanic$CLASS)\r\nlevels(titanic$CLASS_c1)<-c(\"equipage\",\"classe 1-2\",\"class 1-2\", \"classe3\")\r\n\r\n\r\n\r\nOn peut verifier le recodage\r\n\r\n\r\nxtabs(~CLASS_c1+CLASS,data=titanic)\r\n\r\n\r\n            CLASS\r\nCLASS_c1       0   1   2   3\r\n  equipage   885   0   0   0\r\n  classe 1-2   0 325   0   0\r\n  class 1-2    0   0 285   0\r\n  classe3      0   0   0 706\r\n\r\nAvec le tidyverse\r\n\r\n\r\ntitanic$class_c2<- fct_recode(as.factor(titanic$CLASS),\r\n           \"Equipage\" = \"0\",\r\n           \"class1-2\" = \"1\",\r\n           \"class1-2\"=\"2\",\r\n           \"classe3\" =\"3\")\r\n\r\n\r\n\r\nMise en classe\r\n\r\n\r\ntitanic$age_nom<-cut(titanic$age, breaks = c(0,18,25,40))\r\ntable(titanic$AGE_c2,titanic$age_nom)\r\n\r\n\r\n        \r\n         (0,18] (18,25] (25,40]\r\n  Enfant     17      91       1\r\n  Adulte    324    1750      18\r\n\r\n\r\n\r\n\r\n",
    "preview": {},
    "last_modified": "2021-02-05T13:57:34+01:00",
    "input_file": {}
  },
  {
    "path": "posts/2021-02-04-selection/",
    "title": "Selection",
    "description": "Sélectionner des lignes et des colonnes",
    "author": [],
    "date": "2021-02-05",
    "categories": [],
    "contents": "\r\n\r\n\r\n\r\nSous tableau\r\nSelection de lignes\r\nOn selectionne des lignes qui ont une certaine caractéristique. Il existe toujours plusieurs possibilités\r\nA l’ancienne\r\nOn souhaite avoir uniquement le tableau contenant les femmes. Pour cela on utilise la variable SEXE que l’on recode :\r\n\r\n\r\ntitanic$SEX_recod<-as.factor(titanic$SEX)\r\nlevels(titanic$SEX_recod)<-c(\"Femme\",\"Homme\")\r\n\r\n\r\n\r\nSelectionner les femmes peut se faire par les commandes vecteurs et les conditions\r\n\r\n\r\nV_Fe<-which(titanic$SEX_recod==\"Femme\")\r\nsous_tab1<-titanic[V_Fe,]\r\nstr(sous_tab1)\r\n\r\n\r\n'data.frame':   470 obs. of  6 variables:\r\n $ CLASS    : int  1 1 1 1 1 1 1 1 1 1 ...\r\n $ AGE      : int  1 1 1 1 1 1 1 1 1 1 ...\r\n $ SEX      : int  0 0 0 0 0 0 0 0 0 0 ...\r\n $ SURV     : int  1 1 1 1 1 1 1 1 1 1 ...\r\n $ age      : num  23.7 20.3 18.6 22.5 16.6 ...\r\n $ SEX_recod: Factor w/ 2 levels \"Femme\",\"Homme\": 1 1 1 1 1 1 1 1 1 1 ...\r\n\r\nOn peut aussi utiliser la fonction subset\r\n\r\n\r\nsous_tab2<-subset(titanic, SEX_recod==\"Femme\")\r\nstr(sous_tab2)\r\n\r\n\r\n'data.frame':   470 obs. of  6 variables:\r\n $ CLASS    : int  1 1 1 1 1 1 1 1 1 1 ...\r\n $ AGE      : int  1 1 1 1 1 1 1 1 1 1 ...\r\n $ SEX      : int  0 0 0 0 0 0 0 0 0 0 ...\r\n $ SURV     : int  1 1 1 1 1 1 1 1 1 1 ...\r\n $ age      : num  23.7 20.3 18.6 22.5 16.6 ...\r\n $ SEX_recod: Factor w/ 2 levels \"Femme\",\"Homme\": 1 1 1 1 1 1 1 1 1 1 ...\r\n\r\nAvec le tidyverse\r\nOn utilise le fameux package dplyr et le verbe filter puisqu’il s’agit bien de faire ça\r\n\r\n\r\nlibrary(dplyr)\r\nsous_tab3<-filter(titanic, SEX_recod==\"Femme\")\r\nstr(sous_tab3)\r\n\r\n\r\n'data.frame':   470 obs. of  6 variables:\r\n $ CLASS    : int  1 1 1 1 1 1 1 1 1 1 ...\r\n $ AGE      : int  1 1 1 1 1 1 1 1 1 1 ...\r\n $ SEX      : int  0 0 0 0 0 0 0 0 0 0 ...\r\n $ SURV     : int  1 1 1 1 1 1 1 1 1 1 ...\r\n $ age      : num  23.7 20.3 18.6 22.5 16.6 ...\r\n $ SEX_recod: Factor w/ 2 levels \"Femme\",\"Homme\": 1 1 1 1 1 1 1 1 1 1 ...\r\n\r\nSelection de colonne\r\nA l’ancienne\r\nPar l’indexation,\r\n\r\n\r\nsous_tab5<-titanic[,c(\"SEX\",\"SEX_recod\")]\r\nstr(sous_tab5)\r\n\r\n\r\n'data.frame':   2201 obs. of  2 variables:\r\n $ SEX      : int  1 1 1 1 1 1 1 1 1 1 ...\r\n $ SEX_recod: Factor w/ 2 levels \"Femme\",\"Homme\": 2 2 2 2 2 2 2 2 2 2 ...\r\n\r\npar subset,\r\n\r\n\r\nsous_tab6<-subset(titanic, select = c(SEX,SEX_recod))\r\nstr(sous_tab6)\r\n\r\n\r\n'data.frame':   2201 obs. of  2 variables:\r\n $ SEX      : int  1 1 1 1 1 1 1 1 1 1 ...\r\n $ SEX_recod: Factor w/ 2 levels \"Femme\",\"Homme\": 2 2 2 2 2 2 2 2 2 2 ...\r\n\r\nOn peut aussi enlever des colonnes\r\n\r\n\r\nsous_tab5_c<-titanic[,-which(colnames(titanic)%in%c(\"SEX\",\"SEX_recod\"))]\r\nstr(sous_tab5_c)\r\n\r\n\r\n'data.frame':   2201 obs. of  4 variables:\r\n $ CLASS: int  1 1 1 1 1 1 1 1 1 1 ...\r\n $ AGE  : int  1 1 1 1 1 1 1 1 1 1 ...\r\n $ SURV : int  1 1 1 1 1 1 1 1 1 1 ...\r\n $ age  : num  22.7 21.7 20.9 21.4 19.8 ...\r\n\r\n\r\n\r\nsous_tab6_c<-subset(titanic, select = c(-SEX,-SEX_recod))\r\nhead(sous_tab6_c)\r\n\r\n\r\n      CLASS AGE SURV      age\r\nP0001     1   1    1 22.74758\r\nP0002     1   1    1 21.72421\r\nP0003     1   1    1 20.94698\r\nP0004     1   1    1 21.40253\r\nP0005     1   1    1 19.82989\r\nP0006     1   1    1 23.13740\r\n\r\nAvec le tidyverse\r\nPour sélectionner des colonnes , le verbe est select\r\n\r\n\r\ntt<-select(titanic, AGE,SEX,SEX_recod,SURV)\r\nstr(tt)\r\n\r\n\r\n'data.frame':   2201 obs. of  4 variables:\r\n $ AGE      : int  1 1 1 1 1 1 1 1 1 1 ...\r\n $ SEX      : int  1 1 1 1 1 1 1 1 1 1 ...\r\n $ SEX_recod: Factor w/ 2 levels \"Femme\",\"Homme\": 2 2 2 2 2 2 2 2 2 2 ...\r\n $ SURV     : int  1 1 1 1 1 1 1 1 1 1 ...\r\n\r\nLa même chose mais en elevant les colonnes\r\n\r\n\r\ntt<-select(titanic, -AGE,-SEX,-SEX_recod,-SURV)\r\nstr(tt)\r\n\r\n\r\n'data.frame':   2201 obs. of  2 variables:\r\n $ CLASS: int  1 1 1 1 1 1 1 1 1 1 ...\r\n $ age  : num  22.7 21.7 20.9 21.4 19.8 ...\r\n\r\nC’est là que la syntaxe se simplifie, l’usage de dplyr permet de sélectionner les colonnes qui ont un nom qui commence ou fini par avec une syntaxe très très simple\r\n\r\n\r\ntt<-select(titanic, starts_with(\"SEX_\"))\r\nstr(tt)\r\n\r\n\r\n'data.frame':   2201 obs. of  1 variable:\r\n $ SEX_recod: Factor w/ 2 levels \"Femme\",\"Homme\": 2 2 2 2 2 2 2 2 2 2 ...\r\n\r\nOperation successives\r\n\r\n\r\nlibrary(forcats)\r\n\r\ntitanic$class_c3<- titanic$CLASS %>%\r\n                    as.factor()%>%\r\n                    fct_recode(\"Equipage\" = \"0\",\r\n           \"class1-2\" = \"1\",\r\n           \"class1-2\"=\"2\",\r\n           \"classe3\" =\"3\")\r\n  \r\ntable(titanic$class_c3)\r\n\r\n\r\n\r\nEquipage class1-2  classe3 \r\n     885      610      706 \r\n\r\n\r\n\r\n\r\n",
    "preview": {},
    "last_modified": "2021-02-05T13:58:27+01:00",
    "input_file": {}
  },
  {
    "path": "posts/2021-02-03-donnees/",
    "title": "Donnees",
    "description": "Voici les données,  pour les premiers pas que nous allons faire",
    "author": [],
    "date": "2021-02-04",
    "categories": [],
    "contents": "\r\nBienvenu dans le titanic\r\n\r\n\r\n1 + 1\r\n\r\n\r\n[1] 2\r\n\r\ntitanicDescription des données\r\nLes données sont décrites ici :\r\nhttp://www.info.univ-angers.fr/pub/gh/Datasets/titanic.htm\r\nOn va faire un import direct\r\n\r\n\r\nsource(\"http://forge.info.univ-angers.fr/~gh/statgh.r\",encoding=\"latin1\")\r\n\r\n\r\n\r\n\r\n (gH) version  6.47 \r\n\r\nfonctions d'aides : lit() fqt() fql() ic() fapprox() chi2() fcomp() datagh() \r\ntaper aide() pour revoir cette liste\r\n\r\ntitanic <- lit.dar(\"http://www.info.univ-angers.fr/~gh/Datasets/titanic.dar\")\r\n\r\n\r\n\r\nEt on ajoute une données supplémentaire factice\r\n\r\n\r\nset.seed(300)\r\ntitanic$age<-rnorm(n=nrow(titanic),mean=20,sd=2)\r\n\r\n\r\n\r\n\r\n\r\n\r\n",
    "preview": "posts/2021-02-03-donnees/image/titanic.jpg",
    "last_modified": "2021-02-04T14:47:28+01:00",
    "input_file": {}
  },
  {
    "path": "posts/2021-02-03-descriptio/",
    "title": "Description des données",
    "description": "Statistique uni et bivariée",
    "author": [],
    "date": "2021-02-03",
    "categories": [],
    "contents": "\r\n\r\n\r\n\r\nStatistique descriptive univariée\r\nStatistique univarié de l’ensemble des variables\r\n\r\n\r\nsummary(titanic)\r\n\r\n\r\n     CLASS            AGE              SEX              SURV      \r\n Min.   :0.000   Min.   :0.0000   Min.   :0.0000   Min.   :0.000  \r\n 1st Qu.:0.000   1st Qu.:1.0000   1st Qu.:1.0000   1st Qu.:0.000  \r\n Median :1.000   Median :1.0000   Median :1.0000   Median :0.000  \r\n Mean   :1.369   Mean   :0.9505   Mean   :0.7865   Mean   :0.323  \r\n 3rd Qu.:3.000   3rd Qu.:1.0000   3rd Qu.:1.0000   3rd Qu.:1.000  \r\n Max.   :3.000   Max.   :1.0000   Max.   :1.0000   Max.   :1.000  \r\n      age       \r\n Min.   :13.41  \r\n 1st Qu.:18.72  \r\n Median :20.15  \r\n Mean   :20.11  \r\n 3rd Qu.:21.51  \r\n Max.   :27.01  \r\n\r\nAGE et age ont été codées comme des variables quantivatives\r\nAprès recodage\r\nAprès avoir recodé la base, ici, on peut faire un description univariée de la répartition par class\r\n\r\n\r\n\r\n\r\n\r\ntable(titanic$CLASS_c1)\r\n\r\n\r\n\r\n  equipage classe 1-2    classe3 \r\n       885        610        706 \r\n\r\nGraphique classique\r\nReprésenter le diagramme de cleveland de la répartition par classe. On commence par calculer le tableau des effectifs\r\n\r\n\r\ntab <- as.data.frame(xtabs(~CLASS_c1, titanic))\r\n\r\n\r\n\r\n\r\n\r\ndotchart(tab$Freq, xlim = c(0, max(tab$Freq)), pch = 21, bg = c(\"orangered\",\"black\",\"chocolate4\"), cex = 1.5,labels=tab$CLASS_c1)\r\n\r\n\r\n\r\n\r\n\r\n\r\nboxplot(titanic$age~titanic$AGE)\r\n\r\n\r\n\r\n\r\nggplot\r\n\r\n\r\nlibrary(ggplot2)\r\ntab <- as.data.frame(xtabs(~CLASS_c1, titanic))\r\n\r\nggplot(tab) +\r\n  aes(x = CLASS_c1, y = Freq) +\r\n  geom_point() +\r\n  xlab(\"Classe\") +\r\n  ylab(\"Effectifs\") +\r\n  coord_flip()\r\n\r\n\r\n\r\n\r\n\r\n\r\n\r\n\r\n\r\nggplot(titanic) +\r\n  aes(x = AGE_c1, y = age) +\r\n  geom_boxplot() +\r\n  xlab(\"classe d'age\") +\r\n  ylab(\"Âge\") +\r\n  ggtitle(\"Répartition par âge factice selon que l'on soit enfant ou pas\")\r\n\r\n\r\n\r\n\r\n\r\n\r\n\r\n",
    "preview": {},
    "last_modified": "2021-02-05T13:58:54+01:00",
    "input_file": {}
  },
  {
    "path": "posts/welcome/",
    "title": "Site éphémère",
    "description": "Données et scipts pour l'atelier RUSS numero 2",
    "author": [],
    "date": "2021-02-03",
    "categories": [],
    "contents": "\r\nL’objectif serait, en groupe très restreint et à distance de :\r\nImporter des données et les décrire\r\nCalculer des statistiques descriptives\r\nRecoder ou créer des variables\r\nSélectionner des observations et/ou des variables\r\nUtiliser le package dplyr pour simplifier son code\r\n\r\n\r\n\r\n",
    "preview": {},
    "last_modified": "2021-02-03T15:54:38+01:00",
    "input_file": {}
  }
]
